%YAML 1.1
%TAG !u! tag:unity3d.com,2011:
--- !u!1045 &1
EditorBuildSettings:
  m_ObjectHideFlags: 0
  serializedVersion: 2
  m_Scenes:
  - enabled: 1
    path: Assets/Scenes/Arkanoid Main Menu.unity
    guid: 3e82512763f7b1c499f1a635ea4b96b2
  - enabled: 1
    path: Assets/Scenes/Arkanoid In Game.unity
    guid: c92e24a97afbea1448727d67979fea53
  - enabled: 1
    path: Assets/Scenes/Arkanoid End Game.unity
    guid: 79ec763461bd8154abe187e5502286d5
  m_configObjects: {}
